Bike Project Documentation
…
)

# A tibble: 1,060,783 × 12
   trip_id  bikeid tripduration from_station_id from_station_name  to_station_id
   <fct>    <fct>         <dbl> <fct>           <fct>              <fct>        
 1 5038738  1701            277 344             Ravenswood Ave & … 316          
 2 9178943  4668            980 85              Michigan Ave & Oa… 157          
 3 16785335 4827            802 322             Kimbark Ave & 53r… 426          
 4 14106159 2885            620 106             State St & Pearso… 28           
 5 16733949 1925            872 117             Wilton Ave & Belm… 117          
 6 9472919  1709           1545 85              Michigan Ave & Oa… 329          
 7 16881351 5513           1431 159             Claremont Ave & H… 188          
 8 10629233 5723           1154 35              Streeter Dr & Gra… 3            
 9 6831423  1619           1662 334             Lake Shore Dr & B… 35           
10 16810249 5465            954 27              Larrabee St & Nor… 91           
# ℹ 1,060,773 more rows
# ℹ 6 more variables: to_station_name <fct>, usertype <fct>, gender <fct>,
#   birthyear <dbl>, started_at <dttm>, ended_at <dttm>
…
(
  trip_transformed <- 
    trip_with_ridelength %>% 
    filter(ride_length > 0) %>% # removing inconsistent ride_length 
    select(-difference) %>% # removing the difference auxiliar field
    mutate(day_of_week = wday(started_at, week_start = 7, label = FALSE),
           yr = year(started_at),
           mth = month(started_at),
           age = yr - birthyear,
           usertype = if_else(usertype == "Customer", "casual", "member")) %>%
    filter(!(usertype == "member" & (is.na(birthyear) | is.na(gender)))) %>% 
    select(ends_with("at"), day_of_week, everything())
)

# A tibble: 1,060,626 × 17
   started_at          ended_at            day_of_week tripduration ride_length
   <dttm>              <dttm>                    <dbl>        <dbl>       <dbl>
 1 2015-05-03 12:34:00 2015-05-03 12:39:00           1          277         300
 2 2016-04-14 16:30:00 2016-04-14 16:46:00           5          980         960
 3 2017-10-04 01:36:00 2017-10-04 01:49:00           4          802         780
 4 2017-05-21 19:16:52 2017-05-21 19:27:12           1          620         620
 5 2017-09-30 23:25:10 2017-09-30 23:39:42           7          872         872
 6 2016-05-08 15:40:00 2016-05-08 16:06:00           1         1545        1560
 7 2017-10-09 17:40:00 2017-10-09 18:04:00           2         1431        1440
 8 2016-07-10 17:17:08 2016-07-10 17:36:21           1         1154        1153
 9 2015-08-11 12:44:00 2015-08-11 13:12:00           3         1662        1680
10 2017-10-05 12:15:00 2017-10-05 12:31:00           5          954         960
# ℹ 1,060,616 more rows
# ℹ 12 more variables: trip_id <fct>, bikeid <fct>, from_station_id <fct>,
#   from_station_name <fct>, to_station_id <fct>, to_station_name <fct>,
#   usertype <chr>, gender <fct>, birthyear <dbl>, yr <dbl>, mth <dbl>,
#   age <dbl>
…
